{
  "data": {
    "path": "/content/whitelabel/en_gb/home/shoppable/checkout/_jcr_content/flexi_hero_par/checkoutshoppable",
    "componentType": "checkoutShoppable",
    "ajaxURL": "/content/whitelabel/en_gb/home/shoppable/checkout/_jcr_content/flexi_hero_par/checkoutshoppable.data.ajax.json",
    "clientSideRendering": false,
    "viewType": "defaultView",
    "randomNumber": "668",
    "isContainer": false,
    "checkoutShoppable": {
      "market": "en_gb",
      "brandName": "whitelabel",
      "shoppableConfig": {
        "apiToken": "hG43ln68I73205QQca3ebd8bd2eeb2a8",
        "applicationID": "yyyyyy",
        "campaign": "NOXZEMA",
        "continueShoppingUrl": "/content/whitelabel/en_gb/home.html",
        "cookieDomain": ".unileversolution.com",
        "ctaCopy": "shopNow.addToBagText",
        "developerMode": "true",
        "enabled": "true",
        "orderCompleteUrl": "http://aali2.unileversolutions.com/content/whitelabel/en_gb/home/shoppable/thankyou.html",
        "orderCompletereturnToSiteUrl": "http://aali2.unileversolutions.com/content/whitelabel/en_gb/home.html",
        "publisherCheckoutUrl": "http://aali2.unileversolutions.com/content/whitelabel/en_gb/home/shoppable/checkout.html",
        "serviceProviderName": "shoppable",
        "serviceURL": "http://int.magic.shoppable.co",
        "shoppableCheckoutUrl": "//int.secure.shoppable.co/checkout?",
        "upcIdType": "",
        "viewBagLink": "/content/whitelabel/en_gb/home/shoppable/viewbag.html"
      },
      "gobackLinkText": "go back",
      "componentName": "checkoutShoppable",
      "title": "Title"
    },
    "resourceType": "unilever-iea/components/checkoutShoppable"
  },
  "responseHeader": {
    "messages": [],
    "status": "200"
  }
}