{  
   "data":{  
      "path":"/uk/hair-care/shampoo/nourishing-oil-care-shampoo/_jcr_content/alternateproducts",
      "componentType":"multipleRelatedProductsComplimentary",
      "ajaxURL":"/uk/hair-care/shampoo/nourishing-oil-care-shampoo/_jcr_content/alternateproducts.data.ajax.json",
      "multipleRelatedProductsComplimentary":{  
         "market":"en_gb",
         "anchorLinkNavigation":{  
            "showAsNavigation":"false",
            "label":"Multiple Related Products",
            "id":"multiplerelatedproducts622"
         },
         "brandName":"dove",
         "static":{  
            "productCountlabel":"productCountlabel"
         },
         "review":{  
            "ratingAndReviewWidgetType":"type-4",
            "isRatingAndReviewEnabled":"true"
         },
         "componentName":"multipleRelatedProductsComplimentary",
         "title":"You may also like",
         "productList":[  
            {  
               "title":"Advanced Hair Series Quench Absolute Shampoo",
               "description":"Dove Advanced Hair Series Quench Absolute Shampoo helps to make naturally curly hair feel and look smoother, softer and more manageable.",
               "productID":"8712561894036",
               "currencySymbol":"£",
			   "enableCustomizationBadges": true,
			   "isCustomizableProduct": true,
			   "personalizableLabel": "personalizable",
               "ratings":{  
                  "entityType":"product",
                  "identifierValue":"8712561894036",
                  "viewType":"rating",
                  "identifierType":"EAN",
                  "uniqueId":"8712561894036"
               },
               "productsDetail":[  
                  {  
                     "unit":"250ml",
                     "images":[  
                        {  
                           "path":"http://localhost:4502/content/dam/unilever/dove/global/pack_shot/front/hair_care/wash_and_care/dove_ahs_spoo_250mlquenchabsol/Dove_Advanced_Hair_Series_Quench_Absolute_Shampoo_250ml_FO_8712561894036.png",
                           "fileName":"",
                           "extension":"png",
                           "isNotAdaptiveImage":"false",
                           "title":"Dove Quench Absolute Shampoo 250ml",
                           "url":"http://localhost:4502/content/dam/unilever/dove/global/pack_shot/front/hair_care/wash_and_care/dove_ahs_spoo_250mlquenchabsol/Dove_Advanced_Hair_Series_Quench_Absolute_Shampoo_250ml_FO_8712561894036.png",
                           "altImage":"Dove Quench Absolute Shampoo 250ml",
                           "zoomImage":{  
                              "path":"http://localhost:4502/content/dam/unilever/dove/global/pack_shot/front/hair_care/wash_and_care/dove_ahs_spoo_250mlquenchabsol/Dove_Advanced_Hair_Series_Quench_Absolute_Shampoo_250ml_FO_8712561894036.png",
                              "fileName":"",
                              "extension":"png",
                              "isNotAdaptiveImage":"false",
                              "title":"Dove Quench Absolute Shampoo 250ml",
                              "url":"http://localhost:4502/content/dam/unilever/dove/global/pack_shot/front/hair_care/wash_and_care/dove_ahs_spoo_250mlquenchabsol/Dove_Advanced_Hair_Series_Quench_Absolute_Shampoo_250ml_FO_8712561894036.png.ulenscale.985x985.png",
                              "altImage":"Dove Quench Absolute Shampoo 250ml"
                           },
                           "thumbImage":{  
                              "path":"http://localhost:4502/content/dam/unilever/dove/global/pack_shot/front/hair_care/wash_and_care/dove_ahs_spoo_250mlquenchabsol/Dove_Advanced_Hair_Series_Quench_Absolute_Shampoo_250ml_FO_8712561894036.png",
                              "fileName":"",
                              "extension":"png",
                              "isNotAdaptiveImage":"false",
                              "title":"Dove Quench Absolute Shampoo 250ml",
                              "url":"http://localhost:4502/content/dam/unilever/dove/global/pack_shot/front/hair_care/wash_and_care/dove_ahs_spoo_250mlquenchabsol/Dove_Advanced_Hair_Series_Quench_Absolute_Shampoo_250ml_FO_8712561894036.png.thumb.100.140.png",
                              "altImage":"Dove Quench Absolute Shampoo 250ml"
                           }
                        }
                     ],
                     "price":"£5.99",
                     "productSize":"Tall",
                     "smartProductId":"100453",
                     "retail":"RRP",
                     "skuid":"8712561894036"
                  }
               ],
               "containertag":{  
                  "productLoad":{  
                     "productID":"8712561894036",
                     "primaryCategory":"Hair care",
                     "productVariations":"250ml",
                     "action":"productInfo",
                     "label":"Advanced Hair Series Quench Absolute Shampoo",
                     "category":"other",
                     "type":"trackEvent"
                  },
                  "productClick":{  
                     "action":"productClick",
                     "attributes":{  
                        "nonInteraction":"1"
                     },
                     "label":{  
                        "attributes":{  
                           "productVariations":"250ml",
                           "listPosition":""
                        },
                        "category":{  
                           "primaryCategory":"Hair care"
                        },
                        "productInfo":{  
                           "quantity":"250ml",
                           "productID":"8712561894036",
                           "price":"5.99",
                           "brand":"dove",
                           "productName":"Advanced Hair Series Quench Absolute Shampoo"
                        }
                     },
                     "category":"custom",
                     "type":"productclick"
                  },
                  "productQuickView":{  
                     "action":"productQuickView",
                     "attributes":{  
                        "nonInteraction":"1"
                     },
                     "label":{  
                        "attributes":{  
                           "productVariations":"250ml",
                           "listPosition":""
                        },
                        "category":{  
                           "primaryCategory":"Hair care"
                        },
                        "productInfo":{  
                           "quantity":"250ml",
                           "productID":"8712561894036",
                           "price":"5.99",
                           "brand":"dove",
                           "productName":"Advanced Hair Series Quench Absolute Shampoo"
                        }
                     },
                     "category":"custom",
                     "type":"productQuickView"
                  },
                  "productImpression":{  
                     "action":"productImpression",
                     "attributes":{  
                        "nonInteraction":"1"
                     },
                     "label":{  
                        "attributes":{  
                           "productVariations":"250ml",
                           "listPosition":""
                        },
                        "category":{  
                           "primaryCategory":"Hair care"
                        },
                        "productInfo":{  
                           "quantity":"250ml",
                           "productID":"8712561894036",
                           "price":"5.99",
                           "brand":"dove",
                           "productName":"Advanced Hair Series Quench Absolute Shampoo"
                        }
                     },
                     "category":"custom",
                     "type":"productImpression"
                  },
                  "shopNow":{  
                     "productID":"8712561894036",
                     "primaryCategory":"Hair care",
                     "productVariations":"250ml",
                     "action":"shopNow",
                     "attributes":{  
                        "nonInteraction":"1"
                     },
                     "label":{  
                        "attributes":{  
                           "productVariations":"250ml",
                           "listPosition":""
                        },
                        "category":{  
                           "primaryCategory":"Hair care"
                        },
                        "productInfo":{  
                           "quantity":"250ml",
                           "productID":"8712561894036",
                           "price":"5.99",
                           "brand":"dove",
                           "productName":"Advanced Hair Series Quench Absolute Shampoo"
                        }
                     },
                     "category":"custom",
                     "type":"shopNow"
                  },
                  "ratingreview":{  
                     "action":"ratingreview",
                     "label":"Advanced Hair Series Quench Absolute Shampoo",
                     "category":"other",
                     "type":"trackEvent"
                  },
                  "dropdown":{  
                     "action":"dropdown",
                     "label":"dropdown",
                     "category":"custom",
                     "type":"trackEvent"
                  },
                  "zoom":{  
                     "productID":"8712561894036",
                     "primaryCategory":"Hair care",
                     "productVariations":"250ml",
                     "action":"widgets",
                     "label":"zoom",
                     "category":"custom",
                     "type":"trackEvent"
                  }
               },
               "textLink":{  
                  "url":"http://localhost:4502/uk/hair-care/shampoo/advanced-hair-series-quench-absolute-shampoo.html"
               }
            },
            {  
               "title":"Intensive Repair Shampoo",
               "description":"Restore your hair's strength against breakage with this progressively nourishing treatment for damaged hair.",
               "productID":"8718114621371",
               "currencySymbol":"£",
			   "enableCustomizationBadges": true,
			   "isCustomizableProduct": true,
			   "personalizableLabel": "personalizable",
               "ratings":{  
                  "entityType":"product",
                  "identifierValue":"8718114621371",
                  "viewType":"rating",
                  "identifierType":"EAN",
                  "uniqueId":"8718114621371"
               },
               "productsDetail":[  
                  {  
                     "unit":"250ml",
                     "images":[  
                        {  
                           "path":"http://localhost:4502/content/dam/unilever/dove/global/pack_shot/front/hair_care/wash_and_care/dove_spoo_250ml_intensiverepair/Dove_Hair_Therapy_Damage_Solutions_Intensive_Repair_Shampoo_250ml_FO_8718114621371.png",
                           "fileName":"",
                           "extension":"png",
                           "isNotAdaptiveImage":"false",
                           "title":"Dove Intensive Repair Shampoo 250ml",
                           "url":"http://localhost:4502/content/dam/unilever/dove/global/pack_shot/front/hair_care/wash_and_care/dove_spoo_250ml_intensiverepair/Dove_Hair_Therapy_Damage_Solutions_Intensive_Repair_Shampoo_250ml_FO_8718114621371.png",
                           "altImage":"Dove Intensive Repair Shampoo 250ml",
                           "zoomImage":{  
                              "path":"http://localhost:4502/content/dam/unilever/dove/global/pack_shot/front/hair_care/wash_and_care/dove_spoo_250ml_intensiverepair/Dove_Hair_Therapy_Damage_Solutions_Intensive_Repair_Shampoo_250ml_FO_8718114621371.png",
                              "fileName":"",
                              "extension":"png",
                              "isNotAdaptiveImage":"false",
                              "title":"Dove Intensive Repair Shampoo 250ml",
                              "url":"http://localhost:4502/content/dam/unilever/dove/global/pack_shot/front/hair_care/wash_and_care/dove_spoo_250ml_intensiverepair/Dove_Hair_Therapy_Damage_Solutions_Intensive_Repair_Shampoo_250ml_FO_8718114621371.png.ulenscale.985x985.png",
                              "altImage":"Dove Intensive Repair Shampoo 250ml"
                           },
                           "thumbImage":{  
                              "path":"http://localhost:4502/content/dam/unilever/dove/global/pack_shot/front/hair_care/wash_and_care/dove_spoo_250ml_intensiverepair/Dove_Hair_Therapy_Damage_Solutions_Intensive_Repair_Shampoo_250ml_FO_8718114621371.png",
                              "fileName":"",
                              "extension":"png",
                              "isNotAdaptiveImage":"false",
                              "title":"Dove Intensive Repair Shampoo 250ml",
                              "url":"http://localhost:4502/content/dam/unilever/dove/global/pack_shot/front/hair_care/wash_and_care/dove_spoo_250ml_intensiverepair/Dove_Hair_Therapy_Damage_Solutions_Intensive_Repair_Shampoo_250ml_FO_8718114621371.png.thumb.100.140.png",
                              "altImage":"Dove Intensive Repair Shampoo 250ml"
                           }
                        }
                     ],
                     "price":"£2.69",
                     "productSize":"Tall",
                     "smartProductId":"100413",
                     "retail":"RRP",
                     "skuid":"8718114621371"
                  },
                  {  
                     "unit":"400ml",
                     "images":[  
                        {  
                           "path":"http://localhost:4502/content/dam/unilever/dove/global/pack_shot/front/hair_care/wash_and_care/dove_spoo_400ml_intensiverepair/Dove_Hair_Intensive_Repair_Shampoo_400ml_FO_8712561488280.png",
                           "fileName":"",
                           "extension":"png",
                           "isNotAdaptiveImage":"false",
                           "title":"Dove Intensive Repair Shampoo 400ml",
                           "url":"http://localhost:4502/content/dam/unilever/dove/global/pack_shot/front/hair_care/wash_and_care/dove_spoo_400ml_intensiverepair/Dove_Hair_Intensive_Repair_Shampoo_400ml_FO_8712561488280.png",
                           "altImage":"Dove Intensive Repair Shampoo 400ml",
                           "zoomImage":{  
                              "path":"http://localhost:4502/content/dam/unilever/dove/global/pack_shot/front/hair_care/wash_and_care/dove_spoo_400ml_intensiverepair/Dove_Hair_Intensive_Repair_Shampoo_400ml_FO_8712561488280.png",
                              "fileName":"",
                              "extension":"png",
                              "isNotAdaptiveImage":"false",
                              "title":"Dove Intensive Repair Shampoo 400ml",
                              "url":"http://localhost:4502/content/dam/unilever/dove/global/pack_shot/front/hair_care/wash_and_care/dove_spoo_400ml_intensiverepair/Dove_Hair_Intensive_Repair_Shampoo_400ml_FO_8712561488280.png.ulenscale.985x985.png",
                              "altImage":"Dove Intensive Repair Shampoo 400ml"
                           },
                           "thumbImage":{  
                              "path":"http://localhost:4502/content/dam/unilever/dove/global/pack_shot/front/hair_care/wash_and_care/dove_spoo_400ml_intensiverepair/Dove_Hair_Intensive_Repair_Shampoo_400ml_FO_8712561488280.png",
                              "fileName":"",
                              "extension":"png",
                              "isNotAdaptiveImage":"false",
                              "title":"Dove Intensive Repair Shampoo 400ml",
                              "url":"http://localhost:4502/content/dam/unilever/dove/global/pack_shot/front/hair_care/wash_and_care/dove_spoo_400ml_intensiverepair/Dove_Hair_Intensive_Repair_Shampoo_400ml_FO_8712561488280.png.thumb.100.140.png",
                              "altImage":"Dove Intensive Repair Shampoo 400ml"
                           }
                        }
                     ],
                     "price":"£3.99",
                     "productSize":"Tall",
                     "smartProductId":"100413",
                     "retail":"RRP",
                     "skuid":"8712561488280"
                  }
               ],
               "containertag":{  
                  "productLoad":{  
                     "productID":"8718114621371",
                     "primaryCategory":"Hair care",
                     "productVariations":"400ml",
                     "action":"productInfo",
                     "label":"Intensive Repair Shampoo",
                     "category":"other",
                     "type":"trackEvent"
                  },
                  "productClick":{  
                     "action":"productClick",
                     "attributes":{  
                        "nonInteraction":"1"
                     },
                     "label":{  
                        "attributes":{  
                           "productVariations":"400ml",
                           "listPosition":""
                        },
                        "category":{  
                           "primaryCategory":"Hair care"
                        },
                        "productInfo":{  
                           "quantity":"250ml",
                           "productID":"8718114621371",
                           "price":"2.69",
                           "brand":"dove",
                           "productName":"Intensive Repair Shampoo"
                        }
                     },
                     "category":"custom",
                     "type":"productclick"
                  },
                  "productQuickView":{  
                     "action":"productQuickView",
                     "attributes":{  
                        "nonInteraction":"1"
                     },
                     "label":{  
                        "attributes":{  
                           "productVariations":"400ml",
                           "listPosition":""
                        },
                        "category":{  
                           "primaryCategory":"Hair care"
                        },
                        "productInfo":{  
                           "quantity":"250ml",
                           "productID":"8718114621371",
                           "price":"2.69",
                           "brand":"dove",
                           "productName":"Intensive Repair Shampoo"
                        }
                     },
                     "category":"custom",
                     "type":"productQuickView"
                  },
                  "productImpression":{  
                     "action":"productImpression",
                     "attributes":{  
                        "nonInteraction":"1"
                     },
                     "label":{  
                        "attributes":{  
                           "productVariations":"400ml",
                           "listPosition":""
                        },
                        "category":{  
                           "primaryCategory":"Hair care"
                        },
                        "productInfo":{  
                           "quantity":"250ml",
                           "productID":"8718114621371",
                           "price":"2.69",
                           "brand":"dove",
                           "productName":"Intensive Repair Shampoo"
                        }
                     },
                     "category":"custom",
                     "type":"productImpression"
                  },
                  "shopNow":{  
                     "productID":"8718114621371",
                     "primaryCategory":"Hair care",
                     "productVariations":"400ml",
                     "action":"shopNow",
                     "attributes":{  
                        "nonInteraction":"1"
                     },
                     "label":{  
                        "attributes":{  
                           "productVariations":"400ml",
                           "listPosition":""
                        },
                        "category":{  
                           "primaryCategory":"Hair care"
                        },
                        "productInfo":{  
                           "quantity":"250ml",
                           "productID":"8718114621371",
                           "price":"2.69",
                           "brand":"dove",
                           "productName":"Intensive Repair Shampoo"
                        }
                     },
                     "category":"custom",
                     "type":"shopNow"
                  },
                  "ratingreview":{  
                     "action":"ratingreview",
                     "label":"Intensive Repair Shampoo",
                     "category":"other",
                     "type":"trackEvent"
                  },
                  "dropdown":{  
                     "action":"dropdown",
                     "label":"dropdown",
                     "category":"custom",
                     "type":"trackEvent"
                  },
                  "zoom":{  
                     "productID":"8718114621371",
                     "primaryCategory":"Hair care",
                     "productVariations":"400ml",
                     "action":"widgets",
                     "label":"zoom",
                     "category":"custom",
                     "type":"trackEvent"
                  }
               },
               "textLink":{  
                  "url":"http://localhost:4502/uk/hair-care/shampoo/intensive-repair-shampoo.html"
               }
            },
            {  
               "title":"Advanced Hair Series Pure Care Dry Oil Shampoo",
               "description":"For touchable softness and radiant shine, Dove Advanced Hair Series Pure Dry Oil Shampoo nourishes your hair leaving it looking silky soft.",
               "productID":"8712561493031",
               "currencySymbol":"£",
			   "enableCustomizationBadges": true,
			   "isCustomizableProduct": true,
			   "personalizableLabel": "personalizable",
               "ratings":{  
                  "entityType":"product",
                  "identifierValue":"8712561493031",
                  "viewType":"rating",
                  "identifierType":"EAN",
                  "uniqueId":"8712561493031"
               },
               "productsDetail":[  
                  {  
                     "unit":"250ml",
                     "images":[  
                        {  
                           "path":"http://localhost:4502/content/dam/unilever/dove/global/pack_shot/front/hair_care/wash_and_care/dove_ahs_spoo_250mlpureoil/Dove_Advanced_Hair_Series_Pure_Care_Shampoo_250ml_FO_8712561493031.png",
                           "fileName":"",
                           "extension":"png",
                           "isNotAdaptiveImage":"false",
                           "title":"Dove Pure Care Dry Oil Shampoo 250ml",
                           "url":"http://localhost:4502/content/dam/unilever/dove/global/pack_shot/front/hair_care/wash_and_care/dove_ahs_spoo_250mlpureoil/Dove_Advanced_Hair_Series_Pure_Care_Shampoo_250ml_FO_8712561493031.png",
                           "altImage":"Dove Pure Care Dry Oil Shampoo 250ml",
                           "zoomImage":{  
                              "path":"http://localhost:4502/content/dam/unilever/dove/global/pack_shot/front/hair_care/wash_and_care/dove_ahs_spoo_250mlpureoil/Dove_Advanced_Hair_Series_Pure_Care_Shampoo_250ml_FO_8712561493031.png",
                              "fileName":"",
                              "extension":"png",
                              "isNotAdaptiveImage":"false",
                              "title":"Dove Pure Care Dry Oil Shampoo 250ml",
                              "url":"http://localhost:4502/content/dam/unilever/dove/global/pack_shot/front/hair_care/wash_and_care/dove_ahs_spoo_250mlpureoil/Dove_Advanced_Hair_Series_Pure_Care_Shampoo_250ml_FO_8712561493031.png.ulenscale.985x985.png",
                              "altImage":"Dove Pure Care Dry Oil Shampoo 250ml"
                           },
                           "thumbImage":{  
                              "path":"http://localhost:4502/content/dam/unilever/dove/global/pack_shot/front/hair_care/wash_and_care/dove_ahs_spoo_250mlpureoil/Dove_Advanced_Hair_Series_Pure_Care_Shampoo_250ml_FO_8712561493031.png",
                              "fileName":"",
                              "extension":"png",
                              "isNotAdaptiveImage":"false",
                              "title":"Dove Pure Care Dry Oil Shampoo 250ml",
                              "url":"http://localhost:4502/content/dam/unilever/dove/global/pack_shot/front/hair_care/wash_and_care/dove_ahs_spoo_250mlpureoil/Dove_Advanced_Hair_Series_Pure_Care_Shampoo_250ml_FO_8712561493031.png.thumb.100.140.png",
                              "altImage":"Dove Pure Care Dry Oil Shampoo 250ml"
                           }
                        }
                     ],
                     "price":"£5.99",
                     "productSize":"Tall",
                     "smartProductId":"100446",
                     "retail":"RRP",
                     "skuid":"8712561493031"
                  }
               ],
               "containertag":{  
                  "productLoad":{  
                     "productID":"8712561493031",
                     "primaryCategory":"Hair care",
                     "productVariations":"250ml",
                     "action":"productInfo",
                     "label":"Advanced Hair Series Pure Care Dry Oil Shampoo",
                     "category":"other",
                     "type":"trackEvent"
                  },
                  "productClick":{  
                     "action":"productClick",
                     "attributes":{  
                        "nonInteraction":"1"
                     },
                     "label":{  
                        "attributes":{  
                           "productVariations":"250ml",
                           "listPosition":""
                        },
                        "category":{  
                           "primaryCategory":"Hair care"
                        },
                        "productInfo":{  
                           "quantity":"250ml",
                           "productID":"8712561493031",
                           "price":"5.99",
                           "brand":"dove",
                           "productName":"Advanced Hair Series Pure Care Dry Oil Shampoo"
                        }
                     },
                     "category":"custom",
                     "type":"productclick"
                  },
                  "productQuickView":{  
                     "action":"productQuickView",
                     "attributes":{  
                        "nonInteraction":"1"
                     },
                     "label":{  
                        "attributes":{  
                           "productVariations":"250ml",
                           "listPosition":""
                        },
                        "category":{  
                           "primaryCategory":"Hair care"
                        },
                        "productInfo":{  
                           "quantity":"250ml",
                           "productID":"8712561493031",
                           "price":"5.99",
                           "brand":"dove",
                           "productName":"Advanced Hair Series Pure Care Dry Oil Shampoo"
                        }
                     },
                     "category":"custom",
                     "type":"productQuickView"
                  },
                  "productImpression":{  
                     "action":"productImpression",
                     "attributes":{  
                        "nonInteraction":"1"
                     },
                     "label":{  
                        "attributes":{  
                           "productVariations":"250ml",
                           "listPosition":""
                        },
                        "category":{  
                           "primaryCategory":"Hair care"
                        },
                        "productInfo":{  
                           "quantity":"250ml",
                           "productID":"8712561493031",
                           "price":"5.99",
                           "brand":"dove",
                           "productName":"Advanced Hair Series Pure Care Dry Oil Shampoo"
                        }
                     },
                     "category":"custom",
                     "type":"productImpression"
                  },
                  "shopNow":{  
                     "productID":"8712561493031",
                     "primaryCategory":"Hair care",
                     "productVariations":"250ml",
                     "action":"shopNow",
                     "attributes":{  
                        "nonInteraction":"1"
                     },
                     "label":{  
                        "attributes":{  
                           "productVariations":"250ml",
                           "listPosition":""
                        },
                        "category":{  
                           "primaryCategory":"Hair care"
                        },
                        "productInfo":{  
                           "quantity":"250ml",
                           "productID":"8712561493031",
                           "price":"5.99",
                           "brand":"dove",
                           "productName":"Advanced Hair Series Pure Care Dry Oil Shampoo"
                        }
                     },
                     "category":"custom",
                     "type":"shopNow"
                  },
                  "ratingreview":{  
                     "action":"ratingreview",
                     "label":"Advanced Hair Series Pure Care Dry Oil Shampoo",
                     "category":"other",
                     "type":"trackEvent"
                  },
                  "dropdown":{  
                     "action":"dropdown",
                     "label":"dropdown",
                     "category":"custom",
                     "type":"trackEvent"
                  },
                  "zoom":{  
                     "productID":"8712561493031",
                     "primaryCategory":"Hair care",
                     "productVariations":"250ml",
                     "action":"widgets",
                     "label":"zoom",
                     "category":"custom",
                     "type":"trackEvent"
                  }
               },
               "textLink":{  
                  "url":"http://localhost:4502/uk/hair-care/shampoo/advanced-hair-series-pure-care-dry-oil-shampoo.html"
               }
            },
            {  
               "title":"Colour Care Shampoo",
               "description":"Created specially for coloured hair, try Dove Colour Care Shampoo that helps keep hair colour vibrant for up to eight weeks.",
               "productID":"8718114560939",
               "currencySymbol":"£",
			   "enableCustomizationBadges": true,
			   "isCustomizableProduct": true,
			   "personalizableLabel": "personalizable",
               "ratings":{  
                  "entityType":"product",
                  "identifierValue":"8718114560939",
                  "viewType":"rating",
                  "identifierType":"EAN",
                  "uniqueId":"8718114560939"
               },
               "productsDetail":[  
                  {  
                     "unit":"250ml",
                     "images":[  
                        {  
                           "path":"http://localhost:4502/content/dam/unilever/dove/global/pack_shot/front/hair_care/wash_and_care/dove_spoo_250ml_colourcare/Dove_Colour_Care_Shampoo_250ml_FO_8718114560939.png",
                           "fileName":"",
                           "extension":"png",
                           "isNotAdaptiveImage":"false",
                           "title":"Dove Colour Care Shampoo 250ml",
                           "url":"http://localhost:4502/content/dam/unilever/dove/global/pack_shot/front/hair_care/wash_and_care/dove_spoo_250ml_colourcare/Dove_Colour_Care_Shampoo_250ml_FO_8718114560939.png",
                           "altImage":"Dove Colour Care Shampoo 250ml",
                           "zoomImage":{  
                              "path":"http://localhost:4502/content/dam/unilever/dove/global/pack_shot/front/hair_care/wash_and_care/dove_spoo_250ml_colourcare/Dove_Colour_Care_Shampoo_250ml_FO_8718114560939.png",
                              "fileName":"",
                              "extension":"png",
                              "isNotAdaptiveImage":"false",
                              "title":"Dove Colour Care Shampoo 250ml",
                              "url":"http://localhost:4502/content/dam/unilever/dove/global/pack_shot/front/hair_care/wash_and_care/dove_spoo_250ml_colourcare/Dove_Colour_Care_Shampoo_250ml_FO_8718114560939.png.ulenscale.985x985.png",
                              "altImage":"Dove Colour Care Shampoo 250ml"
                           },
                           "thumbImage":{  
                              "path":"http://localhost:4502/content/dam/unilever/dove/global/pack_shot/front/hair_care/wash_and_care/dove_spoo_250ml_colourcare/Dove_Colour_Care_Shampoo_250ml_FO_8718114560939.png",
                              "fileName":"",
                              "extension":"png",
                              "isNotAdaptiveImage":"false",
                              "title":"Dove Colour Care Shampoo 250ml",
                              "url":"http://localhost:4502/content/dam/unilever/dove/global/pack_shot/front/hair_care/wash_and_care/dove_spoo_250ml_colourcare/Dove_Colour_Care_Shampoo_250ml_FO_8718114560939.png.thumb.100.140.png",
                              "altImage":"Dove Colour Care Shampoo 250ml"
                           }
                        }
                     ],
                     "price":"£2.69",
                     "productSize":"Tall",
                     "smartProductId":"100367",
                     "retail":"RRP",
                     "skuid":"8718114560939"
                  },
                  {  
                     "unit":"400ml",
                     "images":[  
                        {  
                           "path":"http://localhost:4502/content/dam/unilever/dove/global/pack_shot/front/hair_care/wash_and_care/dove_spoo_400ml_colourradiance/Dove_Hair_Therapy_Colour_Care_Shampoo_400ml_FO_8712561488297.png",
                           "fileName":"",
                           "extension":"png",
                           "isNotAdaptiveImage":"false",
                           "title":"Dove Colour Care Shampoo 400ml",
                           "url":"http://localhost:4502/content/dam/unilever/dove/global/pack_shot/front/hair_care/wash_and_care/dove_spoo_400ml_colourradiance/Dove_Hair_Therapy_Colour_Care_Shampoo_400ml_FO_8712561488297.png",
                           "altImage":"Dove Colour Care Shampoo 400ml",
                           "zoomImage":{  
                              "path":"http://localhost:4502/content/dam/unilever/dove/global/pack_shot/front/hair_care/wash_and_care/dove_spoo_400ml_colourradiance/Dove_Hair_Therapy_Colour_Care_Shampoo_400ml_FO_8712561488297.png",
                              "fileName":"",
                              "extension":"png",
                              "isNotAdaptiveImage":"false",
                              "title":"Dove Colour Care Shampoo 400ml",
                              "url":"http://localhost:4502/content/dam/unilever/dove/global/pack_shot/front/hair_care/wash_and_care/dove_spoo_400ml_colourradiance/Dove_Hair_Therapy_Colour_Care_Shampoo_400ml_FO_8712561488297.png.ulenscale.985x985.png",
                              "altImage":"Dove Colour Care Shampoo 400ml"
                           },
                           "thumbImage":{  
                              "path":"http://localhost:4502/content/dam/unilever/dove/global/pack_shot/front/hair_care/wash_and_care/dove_spoo_400ml_colourradiance/Dove_Hair_Therapy_Colour_Care_Shampoo_400ml_FO_8712561488297.png",
                              "fileName":"",
                              "extension":"png",
                              "isNotAdaptiveImage":"false",
                              "title":"Dove Colour Care Shampoo 400ml",
                              "url":"http://localhost:4502/content/dam/unilever/dove/global/pack_shot/front/hair_care/wash_and_care/dove_spoo_400ml_colourradiance/Dove_Hair_Therapy_Colour_Care_Shampoo_400ml_FO_8712561488297.png.thumb.100.140.png",
                              "altImage":"Dove Colour Care Shampoo 400ml"
                           }
                        }
                     ],
                     "price":"£3.99",
                     "productSize":"Tall",
                     "smartProductId":"100367",
                     "retail":"RRP",
                     "skuid":"8712561488297"
                  }
               ],
               "containertag":{  
                  "productLoad":{  
                     "productID":"8718114560939",
                     "primaryCategory":"Hair care",
                     "productVariations":"400ml",
                     "action":"productInfo",
                     "label":"Colour Care Shampoo",
                     "category":"other",
                     "type":"trackEvent"
                  },
                  "productClick":{  
                     "action":"productClick",
                     "attributes":{  
                        "nonInteraction":"1"
                     },
                     "label":{  
                        "attributes":{  
                           "productVariations":"400ml",
                           "listPosition":""
                        },
                        "category":{  
                           "primaryCategory":"Hair care"
                        },
                        "productInfo":{  
                           "quantity":"250ml",
                           "productID":"8718114560939",
                           "price":"2.69",
                           "brand":"dove",
                           "productName":"Colour Care Shampoo"
                        }
                     },
                     "category":"custom",
                     "type":"productclick"
                  },
                  "productQuickView":{  
                     "action":"productQuickView",
                     "attributes":{  
                        "nonInteraction":"1"
                     },
                     "label":{  
                        "attributes":{  
                           "productVariations":"400ml",
                           "listPosition":""
                        },
                        "category":{  
                           "primaryCategory":"Hair care"
                        },
                        "productInfo":{  
                           "quantity":"250ml",
                           "productID":"8718114560939",
                           "price":"2.69",
                           "brand":"dove",
                           "productName":"Colour Care Shampoo"
                        }
                     },
                     "category":"custom",
                     "type":"productQuickView"
                  },
                  "productImpression":{  
                     "action":"productImpression",
                     "attributes":{  
                        "nonInteraction":"1"
                     },
                     "label":{  
                        "attributes":{  
                           "productVariations":"400ml",
                           "listPosition":""
                        },
                        "category":{  
                           "primaryCategory":"Hair care"
                        },
                        "productInfo":{  
                           "quantity":"250ml",
                           "productID":"8718114560939",
                           "price":"2.69",
                           "brand":"dove",
                           "productName":"Colour Care Shampoo"
                        }
                     },
                     "category":"custom",
                     "type":"productImpression"
                  },
                  "shopNow":{  
                     "productID":"8718114560939",
                     "primaryCategory":"Hair care",
                     "productVariations":"400ml",
                     "action":"shopNow",
                     "attributes":{  
                        "nonInteraction":"1"
                     },
                     "label":{  
                        "attributes":{  
                           "productVariations":"400ml",
                           "listPosition":""
                        },
                        "category":{  
                           "primaryCategory":"Hair care"
                        },
                        "productInfo":{  
                           "quantity":"250ml",
                           "productID":"8718114560939",
                           "price":"2.69",
                           "brand":"dove",
                           "productName":"Colour Care Shampoo"
                        }
                     },
                     "category":"custom",
                     "type":"shopNow"
                  },
                  "ratingreview":{  
                     "action":"ratingreview",
                     "label":"Colour Care Shampoo",
                     "category":"other",
                     "type":"trackEvent"
                  },
                  "dropdown":{  
                     "action":"dropdown",
                     "label":"dropdown",
                     "category":"custom",
                     "type":"trackEvent"
                  },
                  "zoom":{  
                     "productID":"8718114560939",
                     "primaryCategory":"Hair care",
                     "productVariations":"400ml",
                     "action":"widgets",
                     "label":"zoom",
                     "category":"custom",
                     "type":"trackEvent"
                  }
               },
               "textLink":{  
                  "url":"http://localhost:4502/uk/hair-care/shampoo/colour-care-shampoo.html"
               }
            }
         ]
      },
      "clientSideRendering":false,
      "viewType":"defaultView",
      "randomNumber":"622",
      "isContainer":false,
      "resourceType":"dove/components/multipleRelatedProductsComplimentary"
   },
   "responseHeader":{  
      "messages":[  

      ],
      "status":"200"
   }
}