 {
    "responseHeader": {
        "status": "200",
        "messages": []
    },
    "data": {
        "randomNumber": "778",
        "featuredQuote": {
            "alignment": "center",
            "text": "What has stayed with me are the emotional reactions the women had when they viewed the composite sketches hung side by side. I think many of these brave women realised that they had a distorted self-perception that had affected parts of their lives in significant ways.",
            "reference": "Gil Zamora, FBI forensic arist",
            "socialSharing": {
                "socialMedia": [
                    {
                        "name": "facebook",
						"url":"https://www.facebook.com/sharer/sharer.php?u=http%3A%2F%2Flocalhost%3A4502%2Fcontent%2Fdove%2Fglobal%2Fwelcome_page.html&text=Welcome+Page&Subject=Welcome+Page&body=http%3A%2F%2Flocalhost%3A4502%2Fcontent%2Fdove%2Fglobal%2Fwelcome_page.html",
                        "link": "#",
                        "linkSVG": "facebook",
                        "containertag": {
                            "category": "Referral",
                            "action": "action",
                            "information": "information",
                            "attr": "",
                            "identifier": "ctFacebookwidgetDetailPage"
                        }
                    },
                    {
                        "name": "twitter",
                          "url": "https://twitter.com/intent/tweet?url=http%3A%2F%2Flocalhost%3A4502%2Fcontent%2Fdove%2Fglobal%2Fwelcome_page.html&text=Welcome+Page&Subject=Welcome+Page&body=http%3A%2F%2Flocalhost%3A4502%2Fcontent%2Fdove%2Fglobal%2Fwelcome_page.html",
                        "link": "#",
                        "linkSVG": "twitter",
                        "containertag": {
                            "category": "category",
                            "action": "Share",
                            "information": "information",
                            "attr": "",
                            "identifier": "ctTwitterwidgetDetailPage"
                        }
                    },
                    {
                        "name": "email",
						"url": "mailto:?http%3A%2F%2Flocalhost%3A4502%2Fcontent%2Fdove%2Fglobal%2Fwelcome_page.html&text=Welcome+Page&Subject=Welcome+Page&body=http%3A%2F%2Flocalhost%3A4502%2Fcontent%2Fdove%2Fglobal%2Fwelcome_page.html",
                        "link": "#",
                        "linkSVG": "email",
                        "containertag": {
                            "category": "category",
                            "action": "Email",
                            "information": "information",
                            "attr": "",
                            "identifier": "ctEmailwidgetDetailPage"
                        }
                    }
                ]
            }
        },
        "clientSideRendering": true,
        "clientSideComponentName":"featured-quote",
        "viewType": "defaultView",
        "componentType": "quote",
        "isContainer": false
    }
}