{
    "responseHeader": {
        "status": "200",
        "messages": []
    },
    "data": {
        "randomNumber": "257",
        "multipleRelatedProductsArticle": {
            "title": "You may also like",
            "productList": [
                {
                    "productID": "4982691",
                    "title": "Dove go fresh Touch body wash",
                    "description": "A short description about the product's benefits based on needs goes along here, something short and concise about 120 characters max",
                    "ratings": {
                        "IdentifierType": "UPC",
                        "IdentifierValue": "UPC270472",
                        "ProductSourceID": "",
                        "AverageRating": 3.4,
                        "RatingCount": 5,
                        "ReviewCount": 5
                    },
                    "textLink": {
                        "containertag": {
                            "information": "Dove go fresh Touch body wash",
                            "category": "Custom",
                            "action": "Click to Action",
                            "attr": "attr"
                        },
                        "url": "http://localhost:4502/content/unilever-iea/dove/dovedemo/home/all-products/body-wash/dove-go-fresh-touch-body-wash.html"
                    },
                    "productsDetail": [
                        {
                            "smartProductId": "",
                            "productSize": "",
                            "skuid": "771255",
                            "unit": "500 ml",
                            "price": "$1",
                            "images": [
                                {
                                    "url": "/content/dam/unilever/dove/uk/products/Pure_care_dry_oil.png",
                                    "fileName": "Pure_care_dry_oil",
                                    "isNotAdaptiveImage": "false",
                                    "extension": "png",
                                    "altImage": "Pure care dry oil Caption",
                                    "title": "",
                                    "path": "/content/unilever-iea/dove/dovedemo/home/all-products/body-wash/dove-go-fresh-touch-body-wash/jcr:content/product/assets/image3",
                                    "zoomImage": {
                                        "extension": "png",
                                        "title": "",
                                        "altImage": "Pure care dry oil Caption",
                                        "isNotAdaptiveImage": "false",
                                        "path": "/content/unilever-iea/dove/dovedemo/home/all-products/body-wash/dove-go-fresh-touch-body-wash/jcr:content/product/assets/image3",
                                        "fileName": "Pure_care_dry_oil",
                                        "url": "/content/dam/unilever/dove/uk/products/Pure_care_dry_oil.png"
                                    },
                                    "thumbImage": {
                                        "extension": "png",
                                        "title": "",
                                        "altImage": "Pure care dry oil Caption",
                                        "isNotAdaptiveImage": "false",
                                        "path": "/content/unilever-iea/dove/dovedemo/home/all-products/body-wash/dove-go-fresh-touch-body-wash/jcr:content/product/assets/image3",
                                        "fileName": "Pure_care_dry_oil",
                                        "url": "/content/dam/unilever/dove/uk/products/Pure_care_dry_oil.png.thumb.100.140.png"
                                    }
                                },
                                {
                                    "url": "/content/dam/unilever/dove/uk/products/Pure_care_dry_oil.png",
                                    "fileName": "Pure_care_dry_oil",
                                    "isNotAdaptiveImage": "false",
                                    "extension": "png",
                                    "altImage": "Pure care dry oil Caption",
                                    "title": "",
                                    "path": "/content/unilever-iea/dove/dovedemo/home/all-products/body-wash/dove-go-fresh-touch-body-wash/jcr:content/product/assets/image1",
                                    "zoomImage": {
                                        "extension": "png",
                                        "title": "",
                                        "altImage": "Pure care dry oil Caption",
                                        "isNotAdaptiveImage": "false",
                                        "path": "/content/unilever-iea/dove/dovedemo/home/all-products/body-wash/dove-go-fresh-touch-body-wash/jcr:content/product/assets/image1",
                                        "fileName": "Pure_care_dry_oil",
                                        "url": "/content/dam/unilever/dove/uk/products/Pure_care_dry_oil.png"
                                    },
                                    "thumbImage": {
                                        "extension": "png",
                                        "title": "",
                                        "altImage": "Pure care dry oil Caption",
                                        "isNotAdaptiveImage": "false",
                                        "path": "/content/unilever-iea/dove/dovedemo/home/all-products/body-wash/dove-go-fresh-touch-body-wash/jcr:content/product/assets/image1",
                                        "fileName": "Pure_care_dry_oil",
                                        "url": "/content/dam/unilever/dove/uk/products/Pure_care_dry_oil.png.thumb.100.140.png"
                                    }
                                },
                                {
                                    "url": "/content/dam/unilever/dove/uk/products/Pure_care_dry_oil.png",
                                    "fileName": "Pure_care_dry_oil",
                                    "isNotAdaptiveImage": "false",
                                    "extension": "png",
                                    "altImage": "Pure care dry oil Caption",
                                    "title": "",
                                    "path": "/content/unilever-iea/dove/dovedemo/home/all-products/body-wash/dove-go-fresh-touch-body-wash/jcr:content/product/assets/image2",
                                    "zoomImage": {
                                        "extension": "png",
                                        "title": "",
                                        "altImage": "Pure care dry oil Caption",
                                        "isNotAdaptiveImage": "false",
                                        "path": "/content/unilever-iea/dove/dovedemo/home/all-products/body-wash/dove-go-fresh-touch-body-wash/jcr:content/product/assets/image2",
                                        "fileName": "Pure_care_dry_oil",
                                        "url": "/content/dam/unilever/dove/uk/products/Pure_care_dry_oil.png"
                                    },
                                    "thumbImage": {
                                        "extension": "png",
                                        "title": "",
                                        "altImage": "Pure care dry oil Caption",
                                        "isNotAdaptiveImage": "false",
                                        "path": "/content/unilever-iea/dove/dovedemo/home/all-products/body-wash/dove-go-fresh-touch-body-wash/jcr:content/product/assets/image2",
                                        "fileName": "Pure_care_dry_oil",
                                        "url": "/content/dam/unilever/dove/uk/products/Pure_care_dry_oil.png.thumb.100.140.png"
                                    }
                                },
                                {
                                    "url": "/content/dam/unilever/dove/uk/products/Pure_care_dry_oil.png",
                                    "fileName": "Pure_care_dry_oil",
                                    "isNotAdaptiveImage": "false",
                                    "extension": "png",
                                    "altImage": "Pure care dry oil Caption",
                                    "title": "",
                                    "path": "/content/unilever-iea/dove/dovedemo/home/all-products/body-wash/dove-go-fresh-touch-body-wash/jcr:content/product/assets/image0",
                                    "zoomImage": {
                                        "extension": "png",
                                        "title": "",
                                        "altImage": "Pure care dry oil Caption",
                                        "isNotAdaptiveImage": "false",
                                        "path": "/content/unilever-iea/dove/dovedemo/home/all-products/body-wash/dove-go-fresh-touch-body-wash/jcr:content/product/assets/image0",
                                        "fileName": "Pure_care_dry_oil",
                                        "url": "/content/dam/unilever/dove/uk/products/Pure_care_dry_oil.png"
                                    },
                                    "thumbImage": {
                                        "extension": "png",
                                        "title": "",
                                        "altImage": "Pure care dry oil Caption",
                                        "isNotAdaptiveImage": "false",
                                        "path": "/content/unilever-iea/dove/dovedemo/home/all-products/body-wash/dove-go-fresh-touch-body-wash/jcr:content/product/assets/image0",
                                        "fileName": "Pure_care_dry_oil",
                                        "url": "/content/dam/unilever/dove/uk/products/Pure_care_dry_oil.png.thumb.100.140.png"
                                    }
                                }
                            ]
                        },
                        {
                            "smartProductId": "",
                            "productSize": "",
                            "skuid": "771255",
                            "unit": "500 ml",
                            "price": "$1",
                            "images": [
                                {
                                    "url": "/content/dam/unilever/dove/uk/products/Pure_care_dry_oil.png",
                                    "fileName": "Pure_care_dry_oil",
                                    "isNotAdaptiveImage": "false",
                                    "extension": "png",
                                    "altImage": "Pure care dry oil Caption",
                                    "title": "",
                                    "path": "/content/unilever-iea/dove/dovedemo/home/all-products/body-wash/dove-go-fresh-touch-body-wash/jcr:content/product/assets/image3",
                                    "zoomImage": {
                                        "extension": "png",
                                        "title": "",
                                        "altImage": "Pure care dry oil Caption",
                                        "isNotAdaptiveImage": "false",
                                        "path": "/content/unilever-iea/dove/dovedemo/home/all-products/body-wash/dove-go-fresh-touch-body-wash/jcr:content/product/assets/image3",
                                        "fileName": "Pure_care_dry_oil",
                                        "url": "/content/dam/unilever/dove/uk/products/Pure_care_dry_oil.png"
                                    },
                                    "thumbImage": {
                                        "extension": "png",
                                        "title": "",
                                        "altImage": "Pure care dry oil Caption",
                                        "isNotAdaptiveImage": "false",
                                        "path": "/content/unilever-iea/dove/dovedemo/home/all-products/body-wash/dove-go-fresh-touch-body-wash/jcr:content/product/assets/image3",
                                        "fileName": "Pure_care_dry_oil",
                                        "url": "/content/dam/unilever/dove/uk/products/Pure_care_dry_oil.png.thumb.100.140.png"
                                    }
                                },
                                {
                                    "url": "/content/dam/unilever/dove/uk/products/Pure_care_dry_oil.png",
                                    "fileName": "Pure_care_dry_oil",
                                    "isNotAdaptiveImage": "false",
                                    "extension": "png",
                                    "altImage": "Pure care dry oil Caption",
                                    "title": "",
                                    "path": "/content/unilever-iea/dove/dovedemo/home/all-products/body-wash/dove-go-fresh-touch-body-wash/jcr:content/product/assets/image1",
                                    "zoomImage": {
                                        "extension": "png",
                                        "title": "",
                                        "altImage": "Pure care dry oil Caption",
                                        "isNotAdaptiveImage": "false",
                                        "path": "/content/unilever-iea/dove/dovedemo/home/all-products/body-wash/dove-go-fresh-touch-body-wash/jcr:content/product/assets/image1",
                                        "fileName": "Pure_care_dry_oil",
                                        "url": "/content/dam/unilever/dove/uk/products/Pure_care_dry_oil.png"
                                    },
                                    "thumbImage": {
                                        "extension": "png",
                                        "title": "",
                                        "altImage": "Pure care dry oil Caption",
                                        "isNotAdaptiveImage": "false",
                                        "path": "/content/unilever-iea/dove/dovedemo/home/all-products/body-wash/dove-go-fresh-touch-body-wash/jcr:content/product/assets/image1",
                                        "fileName": "Pure_care_dry_oil",
                                        "url": "/content/dam/unilever/dove/uk/products/Pure_care_dry_oil.png.thumb.100.140.png"
                                    }
                                },
                                {
                                    "url": "/content/dam/unilever/dove/uk/products/Pure_care_dry_oil.png",
                                    "fileName": "Pure_care_dry_oil",
                                    "isNotAdaptiveImage": "false",
                                    "extension": "png",
                                    "altImage": "Pure care dry oil Caption",
                                    "title": "",
                                    "path": "/content/unilever-iea/dove/dovedemo/home/all-products/body-wash/dove-go-fresh-touch-body-wash/jcr:content/product/assets/image2",
                                    "zoomImage": {
                                        "extension": "png",
                                        "title": "",
                                        "altImage": "Pure care dry oil Caption",
                                        "isNotAdaptiveImage": "false",
                                        "path": "/content/unilever-iea/dove/dovedemo/home/all-products/body-wash/dove-go-fresh-touch-body-wash/jcr:content/product/assets/image2",
                                        "fileName": "Pure_care_dry_oil",
                                        "url": "/content/dam/unilever/dove/uk/products/Pure_care_dry_oil.png"
                                    },
                                    "thumbImage": {
                                        "extension": "png",
                                        "title": "",
                                        "altImage": "Pure care dry oil Caption",
                                        "isNotAdaptiveImage": "false",
                                        "path": "/content/unilever-iea/dove/dovedemo/home/all-products/body-wash/dove-go-fresh-touch-body-wash/jcr:content/product/assets/image2",
                                        "fileName": "Pure_care_dry_oil",
                                        "url": "/content/dam/unilever/dove/uk/products/Pure_care_dry_oil.png.thumb.100.140.png"
                                    }
                                },
                                {
                                    "url": "/content/dam/unilever/dove/uk/products/Pure_care_dry_oil.png",
                                    "fileName": "Pure_care_dry_oil",
                                    "isNotAdaptiveImage": "false",
                                    "extension": "png",
                                    "altImage": "Pure care dry oil Caption",
                                    "title": "",
                                    "path": "/content/unilever-iea/dove/dovedemo/home/all-products/body-wash/dove-go-fresh-touch-body-wash/jcr:content/product/assets/image0",
                                    "zoomImage": {
                                        "extension": "png",
                                        "title": "",
                                        "altImage": "Pure care dry oil Caption",
                                        "isNotAdaptiveImage": "false",
                                        "path": "/content/unilever-iea/dove/dovedemo/home/all-products/body-wash/dove-go-fresh-touch-body-wash/jcr:content/product/assets/image0",
                                        "fileName": "Pure_care_dry_oil",
                                        "url": "/content/dam/unilever/dove/uk/products/Pure_care_dry_oil.png"
                                    },
                                    "thumbImage": {
                                        "extension": "png",
                                        "title": "",
                                        "altImage": "Pure care dry oil Caption",
                                        "isNotAdaptiveImage": "false",
                                        "path": "/content/unilever-iea/dove/dovedemo/home/all-products/body-wash/dove-go-fresh-touch-body-wash/jcr:content/product/assets/image0",
                                        "fileName": "Pure_care_dry_oil",
                                        "url": "/content/dam/unilever/dove/uk/products/Pure_care_dry_oil.png.thumb.100.140.png"
                                    }
                                }
                            ]
                        }
                    ]
                }
            ],
            "review": {
                "isRatingAndReviewEnabled": "true",
                "ratingAndReviewWidgetType": "type-4"
            },
            "static": {
                "productCountlabel": "Count"
            },
            "anchorLinkNavigation": {
                "id": "Youmayalsolike257",
                "label": "Multiple Related Products Article",
                "showAsNavigation": "false"
            }
        },
        "path": "/content/unilever-iea/dove/en_gb/testing/_jcr_content/flexi_hero_par/multiplerelatedprodu",
        "clientSideRendering": false,
        "ajaxURL": "/content/unilever-iea/dove/en_gb/testing/jcr:content/flexi_hero_par/multiplerelatedprodu.data.ajax.json",
        "viewType": "defaultView",
        "brandName": "dove",
        "componentType": "multipleRelatedProductsArticle",
        "isContainer": false,
        "resourceType": "unilever-iea/components/multipleRelatedProductsArticle"
    }
}