{
  "data": {
    "path": "/content/dove/en_gb/ProductListTest/_jcr_content/productlisting",
    "componentType": "productListing",
    "brandName": "dove",
    "ajaxURL": "/content/dove/en_gb/ProductListTest/jcr:content/productlisting.data.ajax.json",
    "clientSideRendering": false,
    "viewType": "defaultView",
    "randomNumber": "659",
    "isContainer": false,
    "productListing": {
      "anchorLinkNavigation": {
        "showAsNavigation": "true",
        "label": "Product Listing",
        "id": "ProductListing659"
      },
      "static": {
        "moreLink": {
          "label": "see all",
          "url": "url showAll",
          "containertag": {
            "action": "Click To Action",
            "information": "see all",
            "category": "Custom",
            "attr": "attr"
          }
        },
        "productCountlabel": "products"
      },
      "shopNow": {
        "ctaCopy": "shop now",
        "alt": "shop now link to touch body wash",
        "serviceURL": "https://static.foodity.com/js/dove/constantco-dove.js",
        "applicationID": "6Luoku4oQW",
        "serviceProviderName": "constantcommerce",
        "enabled": "true",
        "mobileBreakPoint": "0",
        "widgetType": "sp-button"
      },
      "searchCriteria": {
        "filterTwo": "filterNotApplied",
        "startRecordNo": "0",
        "filterOne": "filterNotApplied",
        "maxResultCount": "50"
      },
      "componentTitle": "Product Listing",
      "review": {
        "feedDomainUrl": "http://Showcase-eu-int.unileversolutions.com",
        "brandName": "Dove 2.0",
        "apiKey": "cacc73fa-00dd-4e10-9766-0cc0288fa9d9",
        "serviceURI": "http://eu-stage.kritique.io/Widget/resources/js/RR_widget.js",
        "brandId": "14",
        "id": "rr-widget",
        "localeId": "46",
        "enabled": "true"
      },
      "displayCount": 6,
      "masterfilters": {
        "filterTwo": {
          "defaultOption": "my needs",
          "label": "for",
          "list": [
            {
              "id": "unilever:dove/product/need/deo/hyperhydrosis",
              "label": "Hyperhydrosis"
            },
            {
              "id": "unilever:dove/product/need/deo/dark-underarms",
              "label": "Dark Underarms"
            }
          ]
        },
        "filterOne": {
          "defaultOption": "all products",
          "label": "I am looking for",
          "list": [
            {
              "id": "unilever:dove/product/type/deo/roll-on",
              "label": "Roll On"
            },
            {
              "id": "unilever:dove/product/type/deo/spray",
              "label": "Spray"
            }
          ]
        }
      },
      "totalCount": 5,
      "productList": [
        {
          "title": null,
          "description": null,
          "productID": null,
          "currencySymbol": "£",
          "ratings": {
                    "IdentifierType": "UPC",
                    "IdentifierValue": "UPC270472",
                    "ProductSourceID": "",
                    "AverageRating": 3.4,
                    "RatingCount": 5,
                    "ReviewCount": 5
                                   },
          "productsDetail": [
            {
              "unit": null,
              "images": [
                {
                  "path": "/content/dove/en_gb/ProductsAjay/deos/dove-original-antiperspirant-compressed/jcr:content/product/assets/asset0",
                  "fileName": "Dove_Original_48H_Compressed_125ml_FO_96094884",
                  "extension": "png",
                  "isNotAdaptiveImage": "false",
                  "title": "DOVE APA 125ML ORIGINAL",
                  "url": "/content/dam/unilever/dove/global/pack_shot/front/deodorants_and_fragrances/deodorants/dove_apa_125ml_original/Dove_Original_48H_Compressed_125ml_FO_96094884.png",
                  "altImage": "DOVE APA 125ML ORIGINAL",
                  "zoomImage": {
                    "path": "/content/dove/en_gb/ProductsAjay/deos/dove-original-antiperspirant-compressed/jcr:content/product/assets/asset0",
                    "fileName": "Dove_Original_48H_Compressed_125ml_FO_96094884",
                    "extension": "png",
                    "isNotAdaptiveImage": "false",
                    "title": "",
                    "url": "/content/dam/unilever/dove/global/pack_shot/front/deodorants_and_fragrances/deodorants/dove_apa_125ml_original/Dove_Original_48H_Compressed_125ml_FO_96094884.png.ulenscale.Dove_Original_48H_Compressed_125ml_FO_96094884.985x985.png",
                    "altImage": ""
                  },
                  "thumbImage": {
                    "path": "/content/dove/en_gb/ProductsAjay/deos/dove-original-antiperspirant-compressed/jcr:content/product/assets/asset0",
                    "fileName": "Dove_Original_48H_Compressed_125ml_FO_96094884",
                    "extension": "png",
                    "isNotAdaptiveImage": "false",
                    "title": "DOVE APA 125ML ORIGINAL",
                    "url": "/content/dam/unilever/dove/global/pack_shot/front/deodorants_and_fragrances/deodorants/dove_apa_125ml_original/Dove_Original_48H_Compressed_125ml_FO_96094884.png.thumb.100.140.png",
                    "altImage": "DOVE APA 125ML ORIGINAL"
                  }
                }
              ],
              "price": "£",
              "productSize": "",
              "smartProductId": "",
              "skuid": ""
            }
          ],
          "linktext": {
            "label": "Find Out More",
            "url": "http://localhost:4502/content/dove/en_gb/ProductsAjay/deos/dove-original-antiperspirant-compressed.html",
            "containertag": {
              "action": "Click To Action",
              "information": "",
              "category": "Custom",
              "attr": "attr"
            }
          },
          "productTag": [
            {
              "path": "/etc/tags/unilever/dove/market/uk",
              "name": "uk",
              "id": "unilever:dove/market/uk",
              "title": "UK"
            },
            {
              "path": "/etc/tags/unilever/dove/product/benefit/cross-category/moisturising",
              "name": "moisturising",
              "id": "unilever:dove/product/benefit/cross-category/moisturising",
              "title": "Moisturising"
            },
            {
              "path": "/etc/tags/unilever/dove/product/scent/generic/fresh",
              "name": "fresh",
              "id": "unilever:dove/product/scent/generic/fresh",
              "title": "Fresh"
            },
            {
              "path": "/etc/tags/unilever/dove/product/type/deo/spray/compressed",
              "name": "compressed",
              "id": "unilever:dove/product/type/deo/spray/compressed",
              "title": "Compressed"
            },
            {
              "path": "/etc/tags/unilever/dove/product/scent/generic/original",
              "name": "original",
              "id": "unilever:dove/product/scent/generic/original",
              "title": "Original"
            },
            {
              "path": "/etc/tags/unilever/dove/user/women",
              "name": "women",
              "id": "unilever:dove/user/women",
              "title": "Women"
            },
            {
              "path": "/etc/tags/unilever/dove/product/benefit/deo/24hr-protection",
              "name": "24hr-protection",
              "id": "unilever:dove/product/benefit/deo/24hr-protection",
              "title": "24hr Protection"
            }
          ],
          "quickViewLabel": "Quick View",
          "isNewProduct": ""
        },
        {
          "title": null,
          "description": null,
          "productID": null,
          "currencySymbol": "£",
          "ratings": {
                    "IdentifierType": "UPC",
                    "IdentifierValue": "UPC270472",
                    "ProductSourceID": "",
                    "AverageRating": 3.4,
                    "RatingCount": 5,
                    "ReviewCount": 5
                                   },
          "productsDetail": [
            {
              "unit": null,
              "images": [
                {
                  "path": "/content/dove/en_gb/ProductsAjay/deos/dove-go-fresh-antiperspirant-cucumber--green-tea-compressed/jcr:content/product/assets/asset0",
                  "fileName": "Dove_Women_Go_Fresh_Cucumber_&_Green_Tea_Compressed_125ML_FO_96094891",
                  "extension": "png",
                  "isNotAdaptiveImage": "false",
                  "title": "DOVE APA 125ML CUCUMBER",
                  "url": "/content/dam/unilever/dove/united_kingdom/pack_shot/front/deodorants_and_fragrances/deodorants/dove_apa_125ml_cucumber/Dove_Women_Go_Fresh_Cucumber_&_Green_Tea_Compressed_125ML_FO_96094891.png",
                  "altImage": "DOVE APA 125ML CUCUMBER",
                  "zoomImage": {
                    "path": "/content/dove/en_gb/ProductsAjay/deos/dove-go-fresh-antiperspirant-cucumber--green-tea-compressed/jcr:content/product/assets/asset0",
                    "fileName": "Dove_Women_Go_Fresh_Cucumber_&_Green_Tea_Compressed_125ML_FO_96094891",
                    "extension": "png",
                    "isNotAdaptiveImage": "false",
                    "title": "",
                    "url": "/content/dam/unilever/dove/united_kingdom/pack_shot/front/deodorants_and_fragrances/deodorants/dove_apa_125ml_cucumber/Dove_Women_Go_Fresh_Cucumber_&_Green_Tea_Compressed_125ML_FO_96094891.png.ulenscale.Dove_Women_Go_Fresh_Cucumber_&_Green_Tea_Compressed_125ML_FO_96094891.985x985.png",
                    "altImage": ""
                  },
                  "thumbImage": {
                    "path": "/content/dove/en_gb/ProductsAjay/deos/dove-go-fresh-antiperspirant-cucumber--green-tea-compressed/jcr:content/product/assets/asset0",
                    "fileName": "Dove_Women_Go_Fresh_Cucumber_&_Green_Tea_Compressed_125ML_FO_96094891",
                    "extension": "png",
                    "isNotAdaptiveImage": "false",
                    "title": "DOVE APA 125ML CUCUMBER",
                    "url": "/content/dam/unilever/dove/united_kingdom/pack_shot/front/deodorants_and_fragrances/deodorants/dove_apa_125ml_cucumber/Dove_Women_Go_Fresh_Cucumber_&_Green_Tea_Compressed_125ML_FO_96094891.png.thumb.100.140.png",
                    "altImage": "DOVE APA 125ML CUCUMBER"
                  }
                }
              ],
              "price": "£",
              "productSize": "",
              "smartProductId": "",
              "skuid": ""
            }
          ],
          "linktext": {
            "label": "Find Out More",
            "url": "http://localhost:4502/content/dove/en_gb/ProductsAjay/deos/dove-go-fresh-antiperspirant-cucumber--green-tea-compressed.html",
            "containertag": {
              "action": "Click To Action",
              "information": "",
              "category": "Custom",
              "attr": "attr"
            }
          },
          "productTag": [
            {
              "path": "/etc/tags/unilever/dove/product/benefit/cross-category/alcohol-free",
              "name": "alcohol-free",
              "id": "unilever:dove/product/benefit/cross-category/alcohol-free",
              "title": "Alcohol Free"
            },
            {
              "path": "/etc/tags/unilever/dove/product/scent/specific/green-tea",
              "name": "green-tea",
              "id": "unilever:dove/product/scent/specific/green-tea",
              "title": "Green Tea"
            },
            {
              "path": "/etc/tags/unilever/dove/market/uk",
              "name": "uk",
              "id": "unilever:dove/market/uk",
              "title": "UK"
            },
            {
              "path": "/etc/tags/unilever/dove/product/benefit/cross-category/moisturising",
              "name": "moisturising",
              "id": "unilever:dove/product/benefit/cross-category/moisturising",
              "title": "Moisturising"
            },
            {
              "path": "/etc/tags/unilever/dove/product/scent/generic/fresh",
              "name": "fresh",
              "id": "unilever:dove/product/scent/generic/fresh",
              "title": "Fresh"
            },
            {
              "path": "/etc/tags/unilever/dove/product/benefit/deo/48hr-protection",
              "name": "48hr-protection",
              "id": "unilever:dove/product/benefit/deo/48hr-protection",
              "title": "48hr Protection"
            },
            {
              "path": "/etc/tags/unilever/dove/product/type/deo/spray/compressed",
              "name": "compressed",
              "id": "unilever:dove/product/type/deo/spray/compressed",
              "title": "Compressed"
            },
            {
              "path": "/etc/tags/unilever/dove/user/women",
              "name": "women",
              "id": "unilever:dove/user/women",
              "title": "Women"
            },
            {
              "path": "/etc/tags/unilever/dove/product/scent/specific/cucumber",
              "name": "cucumber",
              "id": "unilever:dove/product/scent/specific/cucumber",
              "title": "Cucumber"
            }
          ],
          "quickViewLabel": "Quick View",
          "isNewProduct": ""
        },
        {
          "title": null,
          "description": null,
          "productID": null,
          "currencySymbol": "£",
          "ratings": {
                    "IdentifierType": "UPC",
                    "IdentifierValue": "UPC270472",
                    "ProductSourceID": "",
                    "AverageRating": 3.4,
                    "RatingCount": 5,
                    "ReviewCount": 5
                                   },
          "productsDetail": [
            {
              "unit": null,
              "images": [
                {
                  "path": "/content/dove/en_gb/ProductsAjay/deos/dove-beauty-finish-antiperspirant-compressed/jcr:content/product/assets/asset0",
                  "fileName": "Dove_Women_Beauty_Finish_Compressed_125ML_FO_96094921",
                  "extension": "png",
                  "isNotAdaptiveImage": "false",
                  "title": "DOVE APA 125ML BEAUTY FINISH",
                  "url": "/content/dam/unilever/dove/united_kingdom/pack_shot/front/deodorants_and_fragrances/deodorants/dove_apa_125ml_beautyfinish/Dove_Women_Beauty_Finish_Compressed_125ML_FO_96094921.png",
                  "altImage": "DOVE APA 125ML BEAUTY FINISH",
                  "zoomImage": {
                    "path": "/content/dove/en_gb/ProductsAjay/deos/dove-beauty-finish-antiperspirant-compressed/jcr:content/product/assets/asset0",
                    "fileName": "Dove_Women_Beauty_Finish_Compressed_125ML_FO_96094921",
                    "extension": "png",
                    "isNotAdaptiveImage": "false",
                    "title": "",
                    "url": "/content/dam/unilever/dove/united_kingdom/pack_shot/front/deodorants_and_fragrances/deodorants/dove_apa_125ml_beautyfinish/Dove_Women_Beauty_Finish_Compressed_125ML_FO_96094921.png.ulenscale.Dove_Women_Beauty_Finish_Compressed_125ML_FO_96094921.985x985.png",
                    "altImage": ""
                  },
                  "thumbImage": {
                    "path": "/content/dove/en_gb/ProductsAjay/deos/dove-beauty-finish-antiperspirant-compressed/jcr:content/product/assets/asset0",
                    "fileName": "Dove_Women_Beauty_Finish_Compressed_125ML_FO_96094921",
                    "extension": "png",
                    "isNotAdaptiveImage": "false",
                    "title": "DOVE APA 125ML BEAUTY FINISH",
                    "url": "/content/dam/unilever/dove/united_kingdom/pack_shot/front/deodorants_and_fragrances/deodorants/dove_apa_125ml_beautyfinish/Dove_Women_Beauty_Finish_Compressed_125ML_FO_96094921.png.thumb.100.140.png",
                    "altImage": "DOVE APA 125ML BEAUTY FINISH"
                  }
                }
              ],
              "price": "£",
              "productSize": "",
              "smartProductId": "",
              "skuid": ""
            }
          ],
          "linktext": {
            "label": "Find Out More",
            "url": "http://localhost:4502/content/dove/en_gb/ProductsAjay/deos/dove-beauty-finish-antiperspirant-compressed.html",
            "containertag": {
              "action": "Click To Action",
              "information": "",
              "category": "Custom",
              "attr": "attr"
            }
          },
          "productTag": [
            {
              "path": "/etc/tags/unilever/dove/product/need/deo/hyperhydrosis",
              "name": "hyperhydrosis",
              "id": "unilever:dove/product/need/deo/hyperhydrosis",
              "title": "Hyperhydrosis"
            },
            {
              "path": "/etc/tags/unilever/dove/market/uk",
              "name": "uk",
              "id": "unilever:dove/market/uk",
              "title": "UK"
            },
            {
              "path": "/etc/tags/unilever/dove/product/benefit/deo/48hr-protection",
              "name": "48hr-protection",
              "id": "unilever:dove/product/benefit/deo/48hr-protection",
              "title": "48hr Protection"
            },
            {
              "path": "/etc/tags/unilever/dove/product/type/deo/spray/compressed",
              "name": "compressed",
              "id": "unilever:dove/product/type/deo/spray/compressed",
              "title": "Compressed"
            },
            {
              "path": "/etc/tags/unilever/dove/product/ingredient/vitamin/e",
              "name": "e",
              "id": "unilever:dove/product/ingredient/vitamin/e",
              "title": "e"
            },
            {
              "path": "/etc/tags/unilever/dove/product/need/deo/dark-underarms",
              "name": "dark-underarms",
              "id": "unilever:dove/product/need/deo/dark-underarms",
              "title": "Dark Underarms"
            },
            {
              "path": "/etc/tags/unilever/dove/user/women",
              "name": "women",
              "id": "unilever:dove/user/women",
              "title": "Women"
            }
          ],
          "quickViewLabel": "Quick View",
          "isNewProduct": ""
        },
        {
          "title": null,
          "description": null,
          "productID": null,
          "currencySymbol": "£",
          "ratings": {
                    "IdentifierType": "UPC",
                    "IdentifierValue": "UPC270472",
                    "ProductSourceID": "",
                    "AverageRating": 3.4,
                    "RatingCount": 5,
                    "ReviewCount": 5
                                   },
          "productsDetail": [
            {
              "unit": null,
              "images": [
                {
                  "path": "/content/dove/en_gb/ProductsAjay/hair-care/dove-go-fresh-antiperspirant-pomegranate-roll-on/jcr:content/product/assets/asset0",
                  "fileName": "Dove_Go_Fresh_Pomegranate_and_Lemon_RO_50ml_FO_96032435",
                  "extension": "png",
                  "isNotAdaptiveImage": "false",
                  "title": "DOVE AP RO 50ML POMEGRANATE",
                  "url": "/content/dam/unilever/dove/global/pack_shot/front/deodorants_and_fragrances/deodorants/dove_ap_ro_50ml_pomegranate/Dove_Go_Fresh_Pomegranate_and_Lemon_RO_50ml_FO_96032435.png",
                  "altImage": "DOVE AP RO 50ML POMEGRANATE",
                  "zoomImage": {
                    "path": "/content/dove/en_gb/ProductsAjay/hair-care/dove-go-fresh-antiperspirant-pomegranate-roll-on/jcr:content/product/assets/asset0",
                    "fileName": "Dove_Go_Fresh_Pomegranate_and_Lemon_RO_50ml_FO_96032435",
                    "extension": "png",
                    "isNotAdaptiveImage": "false",
                    "title": "",
                    "url": "/content/dam/unilever/dove/global/pack_shot/front/deodorants_and_fragrances/deodorants/dove_ap_ro_50ml_pomegranate/Dove_Go_Fresh_Pomegranate_and_Lemon_RO_50ml_FO_96032435.png.ulenscale.Dove_Go_Fresh_Pomegranate_and_Lemon_RO_50ml_FO_96032435.985x985.png",
                    "altImage": ""
                  },
                  "thumbImage": {
                    "path": "/content/dove/en_gb/ProductsAjay/hair-care/dove-go-fresh-antiperspirant-pomegranate-roll-on/jcr:content/product/assets/asset0",
                    "fileName": "Dove_Go_Fresh_Pomegranate_and_Lemon_RO_50ml_FO_96032435",
                    "extension": "png",
                    "isNotAdaptiveImage": "false",
                    "title": "DOVE AP RO 50ML POMEGRANATE",
                    "url": "/content/dam/unilever/dove/global/pack_shot/front/deodorants_and_fragrances/deodorants/dove_ap_ro_50ml_pomegranate/Dove_Go_Fresh_Pomegranate_and_Lemon_RO_50ml_FO_96032435.png.thumb.100.140.png",
                    "altImage": "DOVE AP RO 50ML POMEGRANATE"
                  }
                }
              ],
              "price": "£",
              "productSize": "",
              "smartProductId": "",
              "skuid": ""
            }
          ],
          "linktext": {
            "label": "Find Out More",
            "url": "http://localhost:4502/content/dove/en_gb/ProductsAjay/hair-care/dove-go-fresh-antiperspirant-pomegranate-roll-on.html",
            "containertag": {
              "action": "Click To Action",
              "information": "",
              "category": "Custom",
              "attr": "attr"
            }
          },
          "productTag": [
            {
              "path": "/etc/tags/unilever/dove/product/scent/specific/pomegranate",
              "name": "pomegranate",
              "id": "unilever:dove/product/scent/specific/pomegranate",
              "title": "Pomegranate"
            },
            {
              "path": "/etc/tags/unilever/dove/product/type/deo/roll-on",
              "name": "roll-on",
              "id": "unilever:dove/product/type/deo/roll-on",
              "title": "Roll On"
            },
            {
              "path": "/etc/tags/unilever/dove/market/uk",
              "name": "uk",
              "id": "unilever:dove/market/uk",
              "title": "UK"
            },
            {
              "path": "/etc/tags/unilever/dove/product/benefit/cross-category/moisturising",
              "name": "moisturising",
              "id": "unilever:dove/product/benefit/cross-category/moisturising",
              "title": "Moisturising"
            },
            {
              "path": "/etc/tags/unilever/dove/product/scent/generic/fresh",
              "name": "fresh",
              "id": "unilever:dove/product/scent/generic/fresh",
              "title": "Fresh"
            },
            {
              "path": "/etc/tags/unilever/dove/product/scent/specific/lemon-verbena",
              "name": "lemon-verbena",
              "id": "unilever:dove/product/scent/specific/lemon-verbena",
              "title": "Lemon Verbena"
            },
            {
              "path": "/etc/tags/unilever/dove/user/women",
              "name": "women",
              "id": "unilever:dove/user/women",
              "title": "Women"
            },
            {
              "path": "/etc/tags/unilever/dove/product/benefit/deo/24hr-protection",
              "name": "24hr-protection",
              "id": "unilever:dove/product/benefit/deo/24hr-protection",
              "title": "24hr Protection"
            }
          ],
          "quickViewLabel": "Quick View",
          "isNewProduct": ""
        },
        {
          "title": null,
          "description": null,
          "productID": null,
          "currencySymbol": "£",
          "ratings": {
                    "IdentifierType": "UPC",
                    "IdentifierValue": "UPC270472",
                    "ProductSourceID": "",
                    "AverageRating": 3.4,
                    "RatingCount": 5,
                    "ReviewCount": 5
                                   },
          "productsDetail": [
            {
              "unit": null,
              "images": [
                {
                  "path": "/content/dove/en_gb/ProductsAjay/hair-care/dove-original-antiperspirant-cream/jcr:content/product/assets/asset0",
                  "fileName": "Doce_Original_Cream_50ml_80466468",
                  "extension": "png",
                  "isNotAdaptiveImage": "false",
                  "title": "DOVE AP CREAM 50ML ORIGINAL",
                  "url": "/content/dam/unilever/dove/global/pack_shot/front/skin_cleansing/skin_cleansing/dove_ap_cream_50mloriginal/Doce_Original_Cream_50ml_80466468.png",
                  "altImage": "DOVE AP CREAM 50ML ORIGINAL",
                  "zoomImage": {
                    "path": "/content/dove/en_gb/ProductsAjay/hair-care/dove-original-antiperspirant-cream/jcr:content/product/assets/asset0",
                    "fileName": "Doce_Original_Cream_50ml_80466468",
                    "extension": "png",
                    "isNotAdaptiveImage": "false",
                    "title": "",
                    "url": "/content/dam/unilever/dove/global/pack_shot/front/skin_cleansing/skin_cleansing/dove_ap_cream_50mloriginal/Doce_Original_Cream_50ml_80466468.png.ulenscale.Doce_Original_Cream_50ml_80466468.985x985.png",
                    "altImage": ""
                  },
                  "thumbImage": {
                    "path": "/content/dove/en_gb/ProductsAjay/hair-care/dove-original-antiperspirant-cream/jcr:content/product/assets/asset0",
                    "fileName": "Doce_Original_Cream_50ml_80466468",
                    "extension": "png",
                    "isNotAdaptiveImage": "false",
                    "title": "DOVE AP CREAM 50ML ORIGINAL",
                    "url": "/content/dam/unilever/dove/global/pack_shot/front/skin_cleansing/skin_cleansing/dove_ap_cream_50mloriginal/Doce_Original_Cream_50ml_80466468.png.thumb.100.140.png",
                    "altImage": "DOVE AP CREAM 50ML ORIGINAL"
                  }
                }
              ],
              "price": "£",
              "productSize": "",
              "smartProductId": "",
              "skuid": ""
            }
          ],
          "linktext": {
            "label": "Find Out More",
            "url": "http://localhost:4502/content/dove/en_gb/ProductsAjay/hair-care/dove-original-antiperspirant-cream.html",
            "containertag": {
              "action": "Click To Action",
              "information": "",
              "category": "Custom",
              "attr": "attr"
            }
          },
          "productTag": [
            {
              "path": "/etc/tags/unilever/dove/product/scent/generic/original",
              "name": "original",
              "id": "unilever:dove/product/scent/generic/original",
              "title": "Original"
            },
            {
              "path": "/etc/tags/unilever/dove/user/women",
              "name": "women",
              "id": "unilever:dove/user/women",
              "title": "Women"
            },
            {
              "path": "/etc/tags/unilever/dove/product/benefit/deo/24hr-protection",
              "name": "24hr-protection",
              "id": "unilever:dove/product/benefit/deo/24hr-protection",
              "title": "24hr Protection"
            },
            {
              "path": "/etc/tags/unilever/dove/product/type/deo/roll-on",
              "name": "roll-on",
              "id": "unilever:dove/product/type/deo/roll-on",
              "title": "Roll On"
            },
            {
              "path": "/etc/tags/unilever/dove/market/uk",
              "name": "uk",
              "id": "unilever:dove/market/uk",
              "title": "UK"
            }
          ],
          "quickViewLabel": "Quick View",
          "isNewProduct": ""
        }
      ]
    },
    "resourceType": "unilever-iea/components/productListing"
  },
  "responseHeader": {
    "messages": [],
    "status": "200"
  }
}